[gd_resource type="Resource" load_steps=4 format=2]

[ext_resource path="res://src/recipes/ConstructionRecipe.cs" type="Script" id=1]
[ext_resource path="res://src/resources/StrategicResource.cs" type="Script" id=2]

[sub_resource type="Resource" id=8]
resource_name = "RawResourceIron"
script = ExtResource( 2 )
Amount = 5
HumanReadableName = "Iron Ore"

[resource]
script = ExtResource( 1 )
InputResources = [ SubResource( 8 ) ]
